\relax 
\providecommand\babel@aux[2]{}
\@nameuse{bbl@beforestart}
\catcode `"\active 
\catcode `<\active 
\catcode `>\active 
\@nameuse{es@quoting}
\babel@aux{spanish}{}
\@writefile{toc}{\contentsline {section}{\numberline {1}Opinión de la lectura: \textit  {``On the unusual effectiveness of logic in computer science."}}{1}{}\protected@file@percent }
\@writefile{toc}{\contentsline {section}{\numberline {2}Formalice el argumento con lógica proposicional}{3}{}\protected@file@percent }
\gdef \@abspage@last{4}
